Marker:,Sarah Beecham
Total mark:,6.55 (out of 10)

Element,Mark,Comment
Is there lit. search file?,,
Filename correct?,,
Search string (SS) - general comments,,
SS syntactically correct?,0.3,
SS semantically correct?,0.3,
SS appropriate?,0.3,You are missing some synonyms that might be worth exploring such as autonomous (for unmanned).
Reported number of papers sufficient?,0.3,
Reported number of papers close to IEEE value?,0.3,
Exporatory search string(s) - general comments,,
Are there alternative search string(s) (ASS)?,0.3,
ASS semantically correct?,0.6,
Evidence of learning?,0.0,
Inclusion (IC) / Exclusion criteria (EC) - general comments,,
IC understandable?,0.3,
IC appropriate?,0.3,
IC appropriately selective?,0.3,
EC understandable?,0.3,
EC appropriate?,0.3,
Do EC refine included papers?,0.3,Although some do duplicate the inclusion criteria (by stating the opposite) there are some additional criteria that refine the search.
Sources - general comments,,
Sources stated?,0.3,
Sources appropriate?,0.3,Take care with the spelling of IEEE Xplore (it has an e at the end).
Presentation - general comments,,
Spelling correct?,0.0,e.g. reserach 
Punctuation correct?,0.0,
Grammar correct?,0.0,
Abbreviations introduced?,0.0,
Bibliography - general comments,,
[bibliography] Separate file?,0.5,
[bibliography] Correct file format?,0.5,
Share of correctly formatted references,0.75,". Giving you some marks as you have provided an alphabetical list, but it is by initial of the further author rather than the surname.  Also, you need to separate out the references.  It is hard to determine where one reference starts and another ends in this block form."
General comments,,"You could include "" "" around your connected terms, for clearer searches, e.g. ""unmanned vehicle*"".  Also, you do not need to include the plural for vehicles each time, as you may miss papers that use the singular 'vehicle'.  You can add some wildcards (up to 7) in a search string as another alternative to catching more papers if needed.   A pity you did not run a spell check, and follow the instructions for Harvard Style referencing as otherwise a good piece of work."
