Marker:,Gabriella Lakatos
Total mark:,10.0 (out of 10)

,,Note 1: You could only get marks for either 'Population' or 'Problem'. So it is normal that one of the two section will have 0 marks
,,"Note 2: If you have a mark in 'All PICO elements correct!' there will be no marks in any of the other PICO-related sections.
 This means that you have full marks for all PICO elements even though the individual section show 0 marks - ignore those entries"
Element,Mark,Comment
Report has Research Question?,0.9,
Type ('early'/'late') was specified?,0.35,
Context,,
Context labelled?,0.0,
Context correct?,0.0,
Context explained?,0.0,
Population,,
Population labelled?,0.0,
Population explained?,0.0,
Problem,,
Problem labelled?,0.0,
Problem correct?,0.0,
Problem explained?,0.0,
Intervention,,
Intervention labelled?,0.0,
Intervention correct?,0.0,
Intervention explained?,0.0,
Comparison,,
Comparison labelled?,0.0,
Comparison correct?,0.0,
Comparison explained?,0.0,
Outcome,,
Outcome labelled?,0.0,
Outcome correct?,0.0,
Outcome explained?,0.0,
Spelling correct?,0.5,
Grammar correct?,0.5,
Is question Comp. Sci. question?,0.5,
All Pico elements correct!,7.25,
General comments,,Nice job. Outcomes could have been a bit more specific but it is a nicely thought over report.
